{
  "hosting": {
    "public": "dist",
    "rewrites": [
      {
        "source": "**",
        "destination": "/index.html"
      }
    ],
    "headers": [
      {
        "source": "**/*",
        "headers": [
          {
            "key": "X-Content-Type-Options",
            "value": "nosniff"
          },
          {
            "key": "X-Frame-Options",
            "value": "sameorigin"
          },
          {
            "key": "X-UA-Compatible",
            "value": "ie=edge"
          },
          {
            "key": "X-XSS-Protection",
            "value": "1; mode=block"
          }
        ]
      },
      {
        "source": "**/*.@(eot|otf|ttf|ttc|woff|font.css)",
        "headers": [
          {
            "key": "Access-Control-Allow-Origin",
            "value": "*"
          }
        ]
      },
      {
        "source": "**/*.@(jpg|jpeg|gif|png)",
        "headers": [
          {
            "key": "Cache-Control",
            "value": "max-age=7200"
          }
        ]
      },
      {
        "source": "**/*",
        "headers": [
          {
            "key": "Cache-Control",
            "value": "max-age=3600"
          }
        ]
      },
      {
        "source": "/index.html",
        "headers": [
          {
            "key": "Cache-Control",
            "value": "no-cache, no-store, must-revalidate"
          }
        ]
      }
    ]
  },
  "functions": {
    "predeploy": [
      "npm --prefix functions run lint"
    ]
  }
}
